PR1/simul.vcd
$date
  Wed Sep 15 21:01:15 2021
$end
$version
  GHDL v0
$end
$timescale
  1 fs
$end
$scope module standard $end
$upscope $end
$scope module numeric_bit $end
$upscope $end
$scope module testbench $end
$var reg 1 ! clk_in $end
$var reg 1 " reset_in $end
$var reg 1 # inicia_in $end
$var reg 1 $ fim_out $end
$var reg 8 % a_in[7:0] $end
$var reg 8 & b_in[7:0] $end
$var reg 9 ' nsomas_out[8:0] $end
$var reg 16 ( mmc_out[15:0] $end
$var reg 16 ) contador[15:0] $end
$var reg 1 * rco $end
$var reg 16 + contadoraux[15:0] $end
$var reg 1 , keep_simulating $end
$var reg 1 - clk_proc $end
$var reg 1 . reset_count $end
$scope module dut $end
$var reg 1 / reset $end
$var reg 1 0 clock $end
$var reg 1 1 inicia $end
$var reg 8 2 a[7:0] $end
$var reg 8 3 b[7:0] $end
$var reg 1 4 fim $end
$var reg 9 5 nsomas[8:0] $end
$var reg 16 6 mmc[15:0] $end
$var reg 1 7 updatea $end
$var reg 1 8 updateb $end
$var reg 1 9 updates $end
$var reg 1 : enable_soma $end
$var reg 1 ; suma $end
$var reg 1 < sumb $end
$var reg 1 = x $end
$var reg 1 > initvalues $end
$var reg 1 ? fim_s $end
$var reg 1 @ iszero $end
$var reg 1 A isdiff $end
$var reg 1 B isless $end
$var reg 1 C clock_n $end
$scope module uc $end
$var reg 1 D reset $end
$var reg 1 E clock $end
$var reg 1 F isdiff $end
$var reg 1 G isless $end
$var reg 1 H inicia $end
$var reg 1 I iszero $end
$var reg 1 J updatea $end
$var reg 1 K updateb $end
$var reg 1 L updates $end
$var reg 1 M suma $end
$var reg 1 N sumb $end
$var reg 1 O enable_soma $end
$var reg 1 P fim $end
$var reg 1 Q initvalues $end
$var reg 1 R x $end
$comment next_state is not handled $end
$comment current_state is not handled $end
$upscope $end
$scope module fd $end
$var reg 1 S reset $end
$var reg 1 T clock $end
$var reg 1 U updatea $end
$var reg 1 V updateb $end
$var reg 1 W updates $end
$var reg 1 X suma $end
$var reg 1 Y sumb $end
$var reg 1 Z enable_soma $end
$var reg 1 [ initvalues $end
$var reg 1 \ x $end
$var reg 1 ] fim $end
$var reg 8 ^ a[7:0] $end
$var reg 8 _ b[7:0] $end
$var reg 9 ` nsomas[8:0] $end
$var reg 16 a mmc[15:0] $end
$var reg 1 b isdiff $end
$var reg 1 c isless $end
$var reg 1 d iszero $end
$var reg 16 e aa[15:0] $end
$var reg 16 f bb[15:0] $end
$var reg 16 g mma[15:0] $end
$var reg 16 h mmb[15:0] $end
$var reg 8 i ma[7:0] $end
$var reg 8 j mb[7:0] $end
$var reg 9 k ssoma[8:0] $end
$var reg 9 l nsomas_reg[8:0] $end
$var reg 1 m reset_soma $end
$scope module reg1 $end
$var reg 1 n clock $end
$var reg 1 o reset $end
$var reg 1 p load $end
$var reg 8 q parallel_in[7:0] $end
$var reg 8 r parallel_out[7:0] $end
$upscope $end
$scope module reg2 $end
$var reg 1 s clock $end
$var reg 1 t reset $end
$var reg 1 u load $end
$var reg 8 v parallel_in[7:0] $end
$var reg 8 w parallel_out[7:0] $end
$upscope $end
$scope module reg3 $end
$var reg 1 x clock $end
$var reg 1 y reset $end
$var reg 1 z load $end
$var reg 16 { parallel_in[15:0] $end
$var reg 16 | parallel_out[15:0] $end
$upscope $end
$scope module reg4 $end
$var reg 1 } clock $end
$var reg 1 !" reset $end
$var reg 1 "" load $end
$var reg 16 #" parallel_in[15:0] $end
$var reg 16 $" parallel_out[15:0] $end
$upscope $end
$scope module reg5 $end
$var reg 1 %" clock $end
$var reg 1 &" reset $end
$var reg 1 '" load $end
$var reg 16 (" parallel_in[15:0] $end
$var reg 16 )" parallel_out[15:0] $end
$upscope $end
$scope module reg6 $end
$var reg 1 *" clock $end
$var reg 1 +" reset $end
$var reg 1 ," load $end
$var reg 9 -" parallel_in[8:0] $end
$var reg 9 ." parallel_out[8:0] $end
$upscope $end
$upscope $end
$upscope $end
$scope module xcontador16 $end
$var reg 1 /" clock $end
$var reg 1 0" reset $end
$var reg 1 1" count $end
$var reg 1 2" rco $end
$var reg 16 3" cval[15:0] $end
$var reg 16 4" internal[15:0] $end
$upscope $end
$upscope $end
$enddefinitions $end
#0
0!
1"
0#
0$
b00000000 %
b00000000 &
b000000000 '
b0000000000000000 (
b0000000000000000 )
0*
b0000000000000000 +
1,
0-
1.
1/
00
01
b00000000 2
b00000000 3
04
b000000000 5
b0000000000000000 6
17
18
09
0:
0;
0<
0=
1>
0?
1@
0A
0B
1C
1D
1E
0F
0G
0H
1I
1J
1K
0L
0M
0N
0O
0P
1Q
0R
1S
0T
1U
1V
0W
0X
0Y
0Z
1[
0\
0]
b00000000 ^
b00000000 _
b000000000 `
b0000000000000000 a
0b
0c
1d
b0000000000000000 e
b0000000000000000 f
b0000000000000000 g
b0000000000000000 h
b00000000 i
b00000000 j
b000000001 k
b000000000 l
1m
0n
1o
1p
b00000000 q
b00000000 r
0s
1t
1u
b00000000 v
b00000000 w
0x
1y
1z
b0000000000000000 {
b0000000000000000 |
0}
1!"
1""
b0000000000000000 #"
b0000000000000000 $"
0%"
0&"
0'"
b0000000000000000 ("
b0000000000000000 )"
0*"
1+"
0,"
b000000001 -"
b000000000 ."
0/"
10"
11"
02"
b0000000000000000 3"
b0000000000000000 4"
#250000
0.
00"
#500000
#625000
1.
10"
#875000
0"
1#
b00001100 %
b00010000 &
0.
0/
11
b00001100 2
b00010000 3
0@
0D
1H
0I
0S
b00001100 ^
b00010000 _
0d
b0000000000001100 g
b0000000000010000 h
0o
b00001100 q
0t
b00010000 v
0y
b0000000000001100 {
0!"
b0000000000010000 #"
00"
#1000000
1!
b0000000000000001 )
b0000000000000001 +
10
1A
1B
0C
0E
1F
1G
1T
1b
1c
b0000000000001100 e
b0000000000010000 f
b00001100 i
b00010000 j
1n
b00001100 r
1s
b00010000 w
1x
b0000000000001100 |
1}
b0000000000010000 $"
b0000000000001100 ("
1*"
1/"
b0000000000000001 3"
b0000000000000001 4"
#1125000
#2000000
0!
00
07
08
0>
1C
1E
0J
0K
0Q
0T
0U
0V
0[
0m
0n
0p
0s
0u
0x
0z
0}
0""
0*"
0+"
0/"
#3000000
1!
b0000000000000010 )
b0000000000000010 +
10
0C
0E
1T
1n
1s
1x
1}
1*"
1/"
b0000000000000010 3"
b0000000000000010 4"
#4000000
0!
00
17
19
1:
1;
1C
1E
1J
1L
1M
1O
0T
1U
1W
1X
1Z
b0000000000011000 g
0n
0s
0x
1z
b0000000000011000 {
0}
0*"
1,"
0/"
#5000000
1!
b000000001 '
b0000000000000011 )
b0000000000000011 +
10
b000000001 5
0B
0C
0E
0G
1T
b000000001 `
0c
b0000000000011000 e
b0000000000100100 g
b000000010 k
b000000001 l
1n
1s
1x
b0000000000100100 {
b0000000000011000 |
1}
b0000000000011000 ("
1*"
b000000010 -"
b000000001 ."
1/"
b0000000000000011 3"
b0000000000000011 4"
#6000000
0!
00
07
09
0:
0;
1C
1E
0J
0L
0M
0O
0T
0U
0W
0X
0Z
b0000000000001100 g
0n
0s
0x
0z
b0000000000001100 {
0}
0*"
0,"
0/"
#7000000
1!
b0000000000000100 )
b0000000000000100 +
10
0C
0E
1T
1n
1s
1x
1}
1*"
1/"
b0000000000000100 3"
b0000000000000100 4"
#8000000
0!
00
18
19
1:
1<
1C
1E
1K
1L
1N
1O
0T
1V
1W
1Y
1Z
b0000000000100000 h
0n
0s
0x
0}
1""
b0000000000100000 #"
0*"
1,"
0/"
#9000000
1!
b000000010 '
b0000000000000101 )
b0000000000000101 +
10
b000000010 5
1B
0C
0E
1G
1T
b000000010 `
1c
b0000000000100000 f
b0000000000110000 h
b000000011 k
b000000010 l
1n
1s
1x
1}
b0000000000110000 #"
b0000000000100000 $"
1*"
b000000011 -"
b000000010 ."
1/"
b0000000000000101 3"
b0000000000000101 4"
#10000000
0!
00
08
09
0:
0<
1C
1E
0K
0L
0N
0O
0T
0V
0W
0Y
0Z
b0000000000010000 h
0n
0s
0x
0}
0""
b0000000000010000 #"
0*"
0,"
0/"
#11000000
1!
b0000000000000110 )
b0000000000000110 +
10
0C
0E
1T
1n
1s
1x
1}
1*"
1/"
b0000000000000110 3"
b0000000000000110 4"
#12000000
0!
00
17
19
1:
1;
1C
1E
1J
1L
1M
1O
0T
1U
1W
1X
1Z
b0000000000100100 g
0n
0s
0x
1z
b0000000000100100 {
0}
0*"
1,"
0/"
#13000000
1!
b000000011 '
b0000000000000111 )
b0000000000000111 +
10
b000000011 5
0B
0C
0E
0G
1T
b000000011 `
0c
b0000000000100100 e
b0000000000110000 g
b000000100 k
b000000011 l
1n
1s
1x
b0000000000110000 {
b0000000000100100 |
1}
b0000000000100100 ("
1*"
b000000100 -"
b000000011 ."
1/"
b0000000000000111 3"
b0000000000000111 4"
#14000000
0!
00
07
09
0:
0;
1C
1E
0J
0L
0M
0O
0T
0U
0W
0X
0Z
b0000000000001100 g
0n
0s
0x
0z
b0000000000001100 {
0}
0*"
0,"
0/"
#15000000
1!
b0000000000001000 )
b0000000000001000 +
10
0C
0E
1T
1n
1s
1x
1}
1*"
1/"
b0000000000001000 3"
b0000000000001000 4"
#16000000
0!
00
18
19
1:
1<
1C
1E
1K
1L
1N
1O
0T
1V
1W
1Y
1Z
b0000000000110000 h
0n
0s
0x
0}
1""
b0000000000110000 #"
0*"
1,"
0/"
#17000000
1!
b000000100 '
b0000000000001001 )
b0000000000001001 +
10
b000000100 5
1B
0C
0E
1G
1T
b000000100 `
1c
b0000000000110000 f
b0000000001000000 h
b000000101 k
b000000100 l
1n
1s
1x
1}
b0000000001000000 #"
b0000000000110000 $"
1*"
b000000101 -"
b000000100 ."
1/"
b0000000000001001 3"
b0000000000001001 4"
#18000000
0!
00
08
09
0:
0<
1C
1E
0K
0L
0N
0O
0T
0V
0W
0Y
0Z
b0000000000010000 h
0n
0s
0x
0}
0""
b0000000000010000 #"
0*"
0,"
0/"
#19000000
1!
b0000000000001010 )
b0000000000001010 +
10
0C
0E
1T
1n
1s
1x
1}
1*"
1/"
b0000000000001010 3"
b0000000000001010 4"
#20000000
0!
00
17
19
1:
1;
1C
1E
1J
1L
1M
1O
0T
1U
1W
1X
1Z
b0000000000110000 g
0n
0s
0x
1z
b0000000000110000 {
0}
0*"
1,"
0/"
#21000000
1!
b000000101 '
b0000000000001011 )
b0000000000001011 +
10
b000000101 5
09
0;
0A
0B
0C
0E
0F
0G
0L
0M
1T
0W
0X
b000000101 `
0b
0c
b0000000000110000 e
b0000000000001100 g
b000000110 k
b000000101 l
1n
1s
1x
b0000000000001100 {
b0000000000110000 |
1}
b0000000000110000 ("
1*"
0,"
b000000110 -"
b000000101 ."
1/"
b0000000000001011 3"
b0000000000001011 4"
#22000000
0!
00
07
0:
1C
1E
0J
0O
0T
0U
0Z
0n
0s
0x
0z
0}
0*"
0/"
#23000000
1!
b0000000000001100 )
b0000000000001100 +
10
0C
0E
1T
1n
1s
1x
1}
1*"
1/"
b0000000000001100 3"
b0000000000001100 4"
#24000000
0!
1$
b0000000000110000 (
0,
00
14
b0000000000110000 6
1=
1C
1E
1P
1R
0T
1\
b0000000000110000 a
b000000000 k
0n
0s
0x
0}
1%"
1'"
b0000000000110000 )"
0*"
b000000000 -"
0/"
01"
#24125000
1"
0#
0$
b00000000 %
b00000000 &
b000000000 '
b0000000000000000 )
b0000000000000000 +
1,
1.
1/
01
b00000000 2
b00000000 3
04
b000000000 5
17
18
0=
1>
1@
1D
0H
1I
1J
1K
0P
1Q
0R
1S
1U
1V
1[
0\
b00000000 ^
b00000000 _
b000000000 `
1d
b0000000000000000 e
b0000000000000000 f
b0000000000000000 g
b0000000000000000 h
b00000000 i
b00000000 j
b000000001 k
b000000000 l
1m
1o
1p
b00000000 q
b00000000 r
1t
1u
b00000000 v
b00000000 w
1y
1z
b0000000000000000 {
b0000000000000000 |
1!"
1""
b0000000000000000 #"
b0000000000000000 $"
0%"
0'"
b0000000000000000 ("
1+"
b000000001 -"
b000000000 ."
10"
11"
b0000000000000000 3"
b0000000000000000 4"
#24375000
0"
1#
0.
0/
11
0D
1H
0S
0o
0t
0y
0!"
00"
#24625000
#25125000
1!
b0000000000000001 )
b0000000000000001 +
10
0C
0E
1T
1n
1s
1x
1}
1*"
1/"
b0000000000000001 3"
b0000000000000001 4"
#26125000
0!
00
07
08
0>
1C
1E
0J
0K
0Q
0T
0U
0V
0[
0m
0n
0p
0s
0u
0x
0z
0}
0""
0*"
0+"
0/"
#27125000
1!
b0000000000000010 )
b0000000000000010 +
10
0C
0E
1T
1n
1s
1x
1}
1*"
1/"
b0000000000000010 3"
b0000000000000010 4"
#28125000
0!
1$
b0000000000000000 (
0,
00
14
b0000000000000000 6
1=
1C
1E
1P
1R
0T
1\
b0000000000000000 a
b000000000 k
0n
0s
0x
0}
1%"
1'"
b0000000000000000 )"
0*"
b000000000 -"
0/"
01"
#28250000
1"
0#
0$
b0000000000000000 )
b0000000000000000 +
1,
1.
1/
01
04
17
18
0=
1>
1D
0H
1J
1K
0P
1Q
0R
1S
1U
1V
1[
0\
b000000001 k
1m
1o
1p
1t
1u
1y
1z
1!"
1""
0%"
0'"
1+"
b000000001 -"
10"
11"
b0000000000000000 3"
b0000000000000000 4"
#28500000
0"
0.
0/
0D
0S
0o
0t
0y
0!"
00"
#28750000
#28875000
1"
1.
1/
1D
1S
1o
1t
1y
1!"
10"
#29125000
0"
1#
b00000011 %
0.
0/
11
b00000011 2
0D
1H
0S
b00000011 ^
b0000000000000011 g
0o
b00000011 q
0t
0y
b0000000000000011 {
0!"
00"
#29250000
1!
b0000000000000001 )
b0000000000000001 +
10
1A
0C
0E
1F
1T
1b
b0000000000000011 e
b00000011 i
1n
b00000011 r
1s
1x
b0000000000000011 |
1}
b0000000000000011 ("
1*"
1/"
b0000000000000001 3"
b0000000000000001 4"
#29375000
#30250000
0!
00
07
08
0>
1C
1E
0J
0K
0Q
0T
0U
0V
0[
0m
0n
0p
0s
0u
0x
0z
0}
0""
0*"
0+"
0/"
#31250000
1!
b0000000000000010 )
b0000000000000010 +
10
0C
0E
1T
1n
1s
1x
1}
1*"
1/"
b0000000000000010 3"
b0000000000000010 4"
#32250000
0!
1$
b0000000000000011 (
0,
00
14
b0000000000000011 6
1=
1C
1E
1P
1R
0T
1\
b0000000000000011 a
b000000000 k
0n
0s
0x
0}
1%"
1'"
b0000000000000011 )"
0*"
b000000000 -"
0/"
01"
#32375000
1"
0#
0$
b00000000 %
b0000000000000000 )
b0000000000000000 +
1,
1.
1/
01
b00000000 2
04
17
18
0=
1>
0A
1D
0F
0H
1J
1K
0P
1Q
0R
1S
1U
1V
1[
0\
b00000000 ^
0b
b0000000000000000 e
b0000000000000000 g
b00000000 i
b000000001 k
1m
1o
1p
b00000000 q
b00000000 r
1t
1u
1y
1z
b0000000000000000 {
b0000000000000000 |
1!"
1""
0%"
0'"
b0000000000000000 ("
1+"
b000000001 -"
10"
11"
b0000000000000000 3"
b0000000000000000 4"
#32625000
0"
1#
b01000000 &
0.
0/
11
b01000000 3
0D
1H
0S
b01000000 _
b0000000001000000 h
0o
0t
b01000000 v
0y
0!"
b0000000001000000 #"
00"
#32875000
#33375000
1!
b0000000000000001 )
b0000000000000001 +
10
1A
1B
0C
0E
1F
1G
1T
1b
1c
b0000000001000000 f
b01000000 j
1n
1s
b01000000 w
1x
1}
b0000000001000000 $"
1*"
1/"
b0000000000000001 3"
b0000000000000001 4"
#34375000
0!
00
07
08
0>
1C
1E
0J
0K
0Q
0T
0U
0V
0[
0m
0n
0p
0s
0u
0x
0z
0}
0""
0*"
0+"
0/"
#35375000
1!
b0000000000000010 )
b0000000000000010 +
10
0C
0E
1T
1n
1s
1x
1}
1*"
1/"
b0000000000000010 3"
b0000000000000010 4"
#36375000
0!
1$
b0000000000000000 (
0,
00
14
b0000000000000000 6
1=
1C
1E
1P
1R
0T
1\
b0000000000000000 a
b000000000 k
0n
0s
0x
0}
1%"
1'"
b0000000000000000 )"
0*"
b000000000 -"
0/"
01"
#36500000
1"
0#
0$
b00000000 &
b0000000000000000 )
b0000000000000000 +
1,
1.
1/
01
b00000000 3
04
17
18
0=
1>
0A
0B
1D
0F
0G
0H
1J
1K
0P
1Q
0R
1S
1U
1V
1[
0\
b00000000 _
0b
0c
b0000000000000000 f
b0000000000000000 h
b00000000 j
b000000001 k
1m
1o
1p
1t
1u
b00000000 v
b00000000 w
1y
1z
1!"
1""
b0000000000000000 #"
b0000000000000000 $"
0%"
0'"
1+"
b000000001 -"
10"
11"
b0000000000000000 3"
b0000000000000000 4"
#36750000
b00000011 %
0.
b00000011 2
b00000011 ^
b0000000000000011 g
b00000011 q
b0000000000000011 {
00"
#37000000
#37125000
b00000000 %
1.
b00000000 2
b00000000 ^
b0000000000000000 g
b00000000 q
b0000000000000000 {
10"
#37375000
b00011000 %
b00000010 &
0.
b00011000 2
b00000010 3
0@
0I
b00011000 ^
b00000010 _
0d
b0000000000011000 g
b0000000000000010 h
b00011000 q
b00000010 v
b0000000000011000 {
b0000000000000010 #"
00"
#37500000
1!
b0000000000000001 )
b0000000000000001 +
10
0C
0E
1T
1n
1s
1x
1}
1*"
1/"
b0000000000000001 3"
b0000000000000001 4"
#37625000
#37750000
b00000000 %
b00000000 &
b0000000000000000 )
b0000000000000000 +
1.
b00000000 2
b00000000 3
1@
1I
b00000000 ^
b00000000 _
1d
b0000000000000000 g
b0000000000000000 h
b00000000 q
b00000000 v
b0000000000000000 {
b0000000000000000 #"
10"
b0000000000000000 3"
b0000000000000000 4"
#38000000
b00100000 &
0.
b00100000 3
b00100000 _
b0000000000100000 h
b00100000 v
b0000000000100000 #"
00"
#38250000
#38375000
b00000000 &
1.
b00000000 3
b00000000 _
b0000000000000000 h
b00000000 v
b0000000000000000 #"
10"
#38500000
0!
00
1C
1E
0T
0n
0s
0x
0}
0*"
0/"
#38625000
1#
b00001100 &
0.
11
b00001100 3
1H
b00001100 _
b0000000000001100 h
b00001100 v
b0000000000001100 #"
00"
#38875000
#39000000
0#
b00000000 &
1.
01
b00000000 3
0H
b00000000 _
b0000000000000000 h
b00000000 v
b0000000000000000 #"
10"
#39250000
1#
b10000000 %
0.
11
b10000000 2
1H
b10000000 ^
b0000000010000000 g
b10000000 q
b0000000010000000 {
00"
#39500000
1!
b0000000000000001 )
b0000000000000001 +
10
0C
0E
1T
1n
1s
1x
1}
1*"
1/"
b0000000000000001 3"
b0000000000000001 4"
#39625000
0#
b00000000 %
b0000000000000000 )
b0000000000000000 +
1.
01
b00000000 2
0H
b00000000 ^
b0000000000000000 g
b00000000 q
b0000000000000000 {
10"
b0000000000000000 3"
b0000000000000000 4"
#39875000
0"
1#
b00001100 %
b00010000 &
0.
0/
11
b00001100 2
b00010000 3
0@
0D
1H
0I
0S
b00001100 ^
b00010000 _
0d
b0000000000001100 g
b0000000000010000 h
0o
b00001100 q
0t
b00010000 v
0y
b0000000000001100 {
0!"
b0000000000010000 #"
00"
#40125000
#40500000
0!
00
07
08
0>
1C
1E
0J
0K
0Q
0T
0U
0V
0[
0m
0n
0p
0s
0u
0x
0z
0}
0""
0*"
0+"
0/"
#41500000
1!
b0000000000000001 )
b0000000000000001 +
10
0C
0E
1T
1n
1s
1x
1}
1*"
1/"
b0000000000000001 3"
b0000000000000001 4"
#42500000
0!
1$
0,
00
14
1=
1C
1E
1P
1R
0T
1\
b000000000 k
0n
0s
0x
0}
1%"
1'"
0*"
b000000000 -"
0/"
01"
#42625000
1"
0#
0$
b00000000 %
b00000000 &
b0000000000000000 )
b0000000000000000 +
1,
1.
1/
01
b00000000 2
b00000000 3
04
17
18
0=
1>
1@
1D
0H
1I
1J
1K
0P
1Q
0R
1S
1U
1V
1[
0\
b00000000 ^
b00000000 _
1d
b0000000000000000 g
b0000000000000000 h
b000000001 k
1m
1o
1p
b00000000 q
1t
1u
b00000000 v
1y
1z
b0000000000000000 {
1!"
1""
b0000000000000000 #"
0%"
0'"
1+"
b000000001 -"
10"
11"
b0000000000000000 3"
b0000000000000000 4"
#42875000
1#
0.
11
1H
00"
#43125000
#43250000
0#
1.
01
0H
10"
#43500000
0.
00"
#43625000
1!
b0000000000000001 )
b0000000000000001 +
10
0C
0E
1T
1n
1s
1x
1}
1*"
1/"
b0000000000000001 3"
b0000000000000001 4"
#43750000
#43875000
b0000000000000000 )
b0000000000000000 +
1.
10"
b0000000000000000 3"
b0000000000000000 4"
#44125000
0"
1#
b10000000 %
b00000001 &
0.
0/
11
b10000000 2
b00000001 3
0@
0D
1H
0I
0S
b10000000 ^
b00000001 _
0d
b0000000010000000 g
b0000000000000001 h
0o
b10000000 q
0t
b00000001 v
0y
b0000000010000000 {
0!"
b0000000000000001 #"
00"
#44375000
#44625000
0!
00
07
08
0>
1C
1E
0J
0K
0Q
0T
0U
0V
0[
0m
0n
0p
0s
0u
0x
0z
0}
0""
0*"
0+"
0/"
#45625000
1!
b0000000000000001 )
b0000000000000001 +
10
0C
0E
1T
1n
1s
1x
1}
1*"
1/"
b0000000000000001 3"
b0000000000000001 4"
#46625000
0!
1$
0,
00
14
1=
1C
1E
1P
1R
0T
1\
b000000000 k
0n
0s
0x
0}
1%"
1'"
0*"
b000000000 -"
0/"
01"
#46750000
1"
0#
0$
b00000000 %
b00000000 &
b0000000000000000 )
b0000000000000000 +
1,
1.
1/
01
b00000000 2
b00000000 3
04
17
18
0=
1>
1@
1D
0H
1I
1J
1K
0P
1Q
0R
1S
1U
1V
1[
0\
b00000000 ^
b00000000 _
1d
b0000000000000000 g
b0000000000000000 h
b000000001 k
1m
1o
1p
b00000000 q
1t
1u
b00000000 v
1y
1z
b0000000000000000 {
1!"
1""
b0000000000000000 #"
0%"
0'"
1+"
b000000001 -"
10"
11"
b0000000000000000 3"
b0000000000000000 4"
#47000000
0"
1#
b00000011 %
b00000011 &
0.
0/
11
b00000011 2
b00000011 3
0@
0D
1H
0I
0S
b00000011 ^
b00000011 _
0d
b0000000000000011 g
b0000000000000011 h
0o
b00000011 q
0t
b00000011 v
0y
b0000000000000011 {
0!"
b0000000000000011 #"
00"
#47250000
#47750000
1!
b0000000000000001 )
b0000000000000001 +
10
0C
0E
1T
b0000000000000011 e
b0000000000000011 f
b00000011 i
b00000011 j
1n
b00000011 r
1s
b00000011 w
1x
b0000000000000011 |
1}
b0000000000000011 $"
b0000000000000011 ("
1*"
1/"
b0000000000000001 3"
b0000000000000001 4"
#48750000
0!
00
07
08
0>
1C
1E
0J
0K
0Q
0T
0U
0V
0[
0m
0n
0p
0s
0u
0x
0z
0}
0""
0*"
0+"
0/"
#49750000
1!
b0000000000000010 )
b0000000000000010 +
10
0C
0E
1T
1n
1s
1x
1}
1*"
1/"
b0000000000000010 3"
b0000000000000010 4"
#50750000
0!
1$
b0000000000000011 (
0,
00
14
b0000000000000011 6
1=
1C
1E
1P
1R
0T
1\
b0000000000000011 a
b000000000 k
0n
0s
0x
0}
1%"
1'"
b0000000000000011 )"
0*"
b000000000 -"
0/"
01"
#50875000
1"
0#
0$
b00000000 %
b00000000 &
b0000000000000000 )
b0000000000000000 +
1,
1.
1/
01
b00000000 2
b00000000 3
04
17
18
0=
1>
1@
1D
0H
1I
1J
1K
0P
1Q
0R
1S
1U
1V
1[
0\
b00000000 ^
b00000000 _
1d
b0000000000000000 e
b0000000000000000 f
b0000000000000000 g
b0000000000000000 h
b00000000 i
b00000000 j
b000000001 k
1m
1o
1p
b00000000 q
b00000000 r
1t
1u
b00000000 v
b00000000 w
1y
1z
b0000000000000000 {
b0000000000000000 |
1!"
1""
b0000000000000000 #"
b0000000000000000 $"
0%"
0'"
b0000000000000000 ("
1+"
b000000001 -"
10"
11"
b0000000000000000 3"
b0000000000000000 4"
#51125000
0"
1#
b10000000 %
b00000001 &
0.
0/
11
b10000000 2
b00000001 3
0@
0D
1H
0I
0S
b10000000 ^
b00000001 _
0d
b0000000010000000 g
b0000000000000001 h
0o
b10000000 q
0t
b00000001 v
0y
b0000000010000000 {
0!"
b0000000000000001 #"
00"
#51375000
#51875000
1!
b0000000000000001 )
b0000000000000001 +
10
1A
0C
0E
1F
1T
1b
b0000000010000000 e
b0000000000000001 f
b10000000 i
b00000001 j
1n
b10000000 r
1s
b00000001 w
1x
b0000000010000000 |
1}
b0000000000000001 $"
b0000000010000000 ("
1*"
1/"
b0000000000000001 3"
b0000000000000001 4"
#52875000
0!
00
07
08
0>
1C
1E
0J
0K
0Q
0T
0U
0V
0[
0m
0n
0p
0s
0u
0x
0z
0}
0""
0*"
0+"
0/"
#53875000
1!
b0000000000000010 )
b0000000000000010 +
10
0C
0E
1T
1n
1s
1x
1}
1*"
1/"
b0000000000000010 3"
b0000000000000010 4"
#54875000
0!
00
18
19
1:
1<
1C
1E
1K
1L
1N
1O
0T
1V
1W
1Y
1Z
b0000000000000010 h
0n
0s
0x
0}
1""
b0000000000000010 #"
0*"
1,"
0/"
#55375000
1"
1/
17
09
0:
0<
1>
0A
1D
0F
1J
0L
0N
0O
1Q
1S
1U
0W
0Y
0Z
1[
0b
b0000000000000000 e
b0000000000000000 f
b0000000000000001 h
b00000000 i
b00000000 j
1m
1o
1p
b00000000 r
1t
1u
b00000000 w
1y
1z
b0000000000000000 |
1!"
b0000000000000001 #"
b0000000000000000 $"
b0000000000000000 ("
1+"
0,"
#55500000
#55625000
0#
b00000000 %
b00000000 &
b0000000000000000 )
b0000000000000000 +
1.
01
b00000000 2
b00000000 3
1@
0H
1I
b00000000 ^
b00000000 _
1d
b0000000000000000 g
b0000000000000000 h
b00000000 q
b00000000 v
b0000000000000000 {
b0000000000000000 #"
10"
b0000000000000000 3"
b0000000000000000 4"
#55875000
1!
0"
1#
b10000000 %
b00000001 &
0.
0/
10
11
b10000000 2
b00000001 3
0@
0C
0D
0E
1H
0I
0S
1T
b10000000 ^
b00000001 _
0d
b0000000010000000 g
b0000000000000001 h
1n
0o
b10000000 q
1s
0t
b00000001 v
1x
0y
b0000000010000000 {
1}
0!"
b0000000000000001 #"
1*"
1/"
00"
#56125000
#56875000
0!
00
07
08
0>
1C
1E
0J
0K
0Q
0T
0U
0V
0[
0m
0n
0p
0s
0u
0x
0z
0}
0""
0*"
0+"
0/"
#57875000
1!
b0000000000000001 )
b0000000000000001 +
10
0C
0E
1T
1n
1s
1x
1}
1*"
1/"
b0000000000000001 3"
b0000000000000001 4"
#58225000
b00000000 %
b00000000 2
1@
1I
b00000000 ^
1d
b0000000000000000 g
b00000000 q
b0000000000000000 {
#58875000
0!
1$
b0000000000000000 (
00
14
b0000000000000000 6
1=
1C
1E
1P
1R
0T
1\
b0000000000000000 a
b000000000 k
0n
0s
0x
0}
1%"
1'"
b0000000000000000 )"
0*"
b000000000 -"
0/"
#59000000
#59125000
1"
0#
0$
b00000000 &
b0000000000000000 )
b0000000000000000 +
1.
1/
01
b00000000 3
04
17
18
0=
1>
1D
0H
1J
1K
0P
1Q
0R
1S
1U
1V
1[
0\
b00000000 _
b0000000000000000 h
b000000001 k
1m
1o
1p
1t
1u
b00000000 v
1y
1z
1!"
1""
b0000000000000000 #"
0%"
0'"
1+"
b000000001 -"
10"
b0000000000000000 3"
b0000000000000000 4"
#59375000
0"
1#
b10000000 %
b00000001 &
0.
0/
11
b10000000 2
b00000001 3
0@
0D
1H
0I
0S
b10000000 ^
b00000001 _
0d
b0000000010000000 g
b0000000000000001 h
0o
b10000000 q
0t
b00000001 v
0y
b0000000010000000 {
0!"
b0000000000000001 #"
00"
#59625000
#59875000
1!
b0000000000000001 )
b0000000000000001 +
10
1A
0C
0E
1F
1T
1b
b0000000010000000 e
b0000000000000001 f
b10000000 i
b00000001 j
1n
b10000000 r
1s
b00000001 w
1x
b0000000010000000 |
1}
b0000000000000001 $"
b0000000010000000 ("
1*"
1/"
b0000000000000001 3"
b0000000000000001 4"
#60875000
0!
00
07
08
0>
1C
1E
0J
0K
0Q
0T
0U
0V
0[
0m
0n
0p
0s
0u
0x
0z
0}
0""
0*"
0+"
0/"
#61875000
1!
b0000000000000010 )
b0000000000000010 +
10
0C
0E
1T
1n
1s
1x
1}
1*"
1/"
b0000000000000010 3"
b0000000000000010 4"
#62875000
0!
00
18
19
1:
1<
1C
1E
1K
1L
1N
1O
0T
1V
1W
1Y
1Z
b0000000000000010 h
0n
0s
0x
0}
1""
b0000000000000010 #"
0*"
1,"
0/"
#63875000
1!
b000000001 '
b0000000000000011 )
b0000000000000011 +
10
b000000001 5
0C
0E
1T
b000000001 `
b0000000000000010 f
b0000000000000011 h
b000000010 k
b000000001 l
1n
1s
1x
1}
b0000000000000011 #"
b0000000000000010 $"
1*"
b000000010 -"
b000000001 ."
1/"
b0000000000000011 3"
b0000000000000011 4"
#64875000
0!
00
08
09
0:
0<
1C
1E
0K
0L
0N
0O
0T
0V
0W
0Y
0Z
b0000000000000001 h
0n
0s
0x
0}
0""
b0000000000000001 #"
0*"
0,"
0/"
#65875000
1!
b0000000000000100 )
b0000000000000100 +
10
0C
0E
1T
1n
1s
1x
1}
1*"
1/"
b0000000000000100 3"
b0000000000000100 4"
#66875000
0!
00
18
19
1:
1<
1C
1E
1K
1L
1N
1O
0T
1V
1W
1Y
1Z
b0000000000000011 h
0n
0s
0x
0}
1""
b0000000000000011 #"
0*"
1,"
0/"
#67875000
1!
b000000010 '
b0000000000000101 )
b0000000000000101 +
10
b000000010 5
0C
0E
1T
b000000010 `
b0000000000000011 f
b0000000000000100 h
b000000011 k
b000000010 l
1n
1s
1x
1}
b0000000000000100 #"
b0000000000000011 $"
1*"
b000000011 -"
b000000010 ."
1/"
b0000000000000101 3"
b0000000000000101 4"
